<svg version="1.1" viewBox="0 0 814.07 308.03" xmlns="http://www.w3.org/2000/svg">
 <path d="m8.2719 1.0182q0.6574 0 1.3148 0.2817 0.7513 0.2817 1.2208 0.9391l25.92 38.88-2.5356-0.094 26.014-38.786q1.0331-1.4087 2.5357-1.2208 1.1269 0 1.8782 0.8452 0.8452 0.7513 0.8452 1.9722v60.104q0 1.1269-0.8452 1.9721-0.8452 0.8453-2.0661 0.8453-1.3147 0-2.16-0.8453-0.8452-0.8452-0.8452-1.9721v-54.376l1.6905 0.1879-23.76 35.968q-0.2817 0.5635-0.8452 0.9391-0.5634 0.2818-1.3147 0.1879-0.6574 0.094-1.3148-0.1879-0.5635-0.3756-0.9392-0.9391l-23.854-36.344 1.7844-1.2209v55.784q0 1.1269-0.8453 1.9721-0.7513 0.8453-1.9721 0.8453-1.2209 0-1.9722-0.8453-0.7513-0.8452-0.7513-1.9721v-60.104q0-1.127 0.7513-1.9722 0.8452-0.8452 2.0661-0.8452z"/>
 <path d="m143.77 33.818q0 7.4191-2.3478 13.617-2.254 6.1043-6.48 10.706-4.2261 4.5078-10.049 7.0435-5.7287 2.4417-12.584 2.4417t-12.678-2.4417q-5.7287-2.5357-9.9547-7.0435-4.2261-4.6017-6.5739-10.706-2.2539-6.1983-2.2539-13.617t2.2539-13.523q2.3478-6.1983 6.5739-10.706 4.226-4.6017 9.9547-7.0434 5.8226-2.5357 12.678-2.5357t12.584 2.5357q5.8226 2.4417 10.049 7.0434 4.226 4.5078 6.48 10.706 2.3478 6.1043 2.3478 13.523zm-6.0104 0q0-8.3582-3.287-14.65-3.193-6.386-8.9217-9.9547t-13.242-3.5687q-7.4191 0-13.242 3.5687-5.7286 3.5687-9.0156 9.9547-3.193 6.2922-3.193 14.65t3.193 14.744q3.287 6.2922 9.0156 9.8608 5.8226 3.5687 13.242 3.5687 7.513 0 13.242-3.5687 5.7287-3.5686 8.9217-9.8608 3.287-6.3861 3.287-14.744z"/>
 <path d="m213.47 0.9182q1.3148 0 2.0661 0.7513 0.8452 0.7513 0.8452 1.8782 0 0.6574-0.2817 1.4087l-25.075 59.916q-0.4696 0.9391-1.2209 1.4087t-1.5026 0.4696q-0.8452 0-1.5965-0.4696t-1.033-1.3148l-24.981-59.822q-0.094-0.2817-0.1878-0.6574-0.094-0.3756-0.094-0.8452 0-1.2208 0.8452-1.9721 0.9391-0.7513 1.8782-0.7513 1.9722 0 2.8174 2.066l23.478 56.16h-1.6904l23.102-56.348q0.9391-1.8782 2.6295-1.8782z"/>
 <path d="m242.27 63.818q-0.094 1.2208-1.0331 2.066-0.8452 0.8453-1.9721 0.8453-1.3148 0-2.16-0.8453-0.7513-0.8452-0.7513-2.066v-59.916q0-1.2209 0.8452-2.0661t2.16-0.8452q1.1269 0 1.9721 0.8452 0.9392 0.8452 0.9392 2.0661z"/>
 <path d="m317.77 1.0182q1.2208 0 1.8782 0.7513 0.7513 0.7513 0.7513 1.8782v60.104q0 1.4086-0.9391 2.2539-0.8452 0.7513-1.9722 0.7513-0.5634 0-1.2208-0.1879-0.6574-0.2817-1.0331-0.7513l-41.885-56.442 1.5965-0.8452v55.69q0 1.0331-0.7513 1.7844t-1.8783 0.7513q-1.2208 0-1.9721-0.7513-0.6574-0.7513-0.6574-1.7844v-60.386q0-1.4087 0.8452-2.0661 0.8452-0.7513 1.8782-0.7513 0.5635 0 1.2209 0.2817 0.6574 0.1878 1.0331 0.7513l41.416 55.784-0.9392 1.6904v-55.878q0-1.1269 0.7513-1.8782 0.8452-0.7513 1.8783-0.7513z"/>
 <path d="m371.67 67.618q-7.2313 0-13.43-2.5357-6.1983-2.5356-10.8-7.0434-4.5078-4.6017-7.0434-10.8-2.5357-6.1982-2.5357-13.43t2.5357-13.43q2.5356-6.1982 7.0434-10.706 4.6017-4.6018 10.8-7.1374 6.1982-2.5357 13.43-2.5357 4.9774 0 9.5791 1.2209 4.6956 1.127 8.3582 3.4748 0.6574 0.4695 0.9392 1.1269 0.3756 0.5635 0.3756 1.2209 0 1.3148-0.8452 2.16-0.8452 0.7513-1.7843 0.7513-0.4696 0-0.9392-0.094-0.3756-0.1878-0.7513-0.3757-3.193-1.7843-6.9495-2.8174-3.7565-1.033-7.9826-1.033-8.0765 0-14.369 3.6626-6.2922 3.6626-9.8609 10.049-3.5687 6.386-3.5687 14.462t3.5687 14.463q3.5687 6.386 9.8609 10.049 6.2921 3.6626 14.369 3.6626 4.2261 0 8.4521-1.2208 4.32-1.2209 7.4191-3.287l-0.4695 1.9722v-21.6l1.4087 1.3147h-16.247q-1.2209 0-2.0661-0.8452t-0.8452-1.9721q0-1.3148 0.8452-2.0661t2.0661-0.7513h17.937q1.2209 0 1.9722 0.8452 0.8452 0.7513 0.8452 1.9722v22.633q0 0.7513-0.3757 1.4087-0.3756 0.6574-1.033 1.127-4.1322 2.8173-9.2974 4.5078-5.0712 1.5965-10.612 1.5965z"/>
 <path d="m457.57 44.818q-1.3147 0-2.16-0.8452-0.7513-0.8452-0.7513-2.0661t0.7513-1.9722q0.8453-0.8452 2.16-0.8452h62.076q1.2209 0 2.0661 0.8452 0.8452 0.7513 0.8452 1.9722t-0.8452 2.0661-2.0661 0.8452z"/>
 <path d="m591.47 63.818q-0.094 1.2208-1.033 2.066-0.8452 0.8453-1.9722 0.8453-1.3147 0-2.16-0.8453-0.7513-0.8452-0.7513-2.066v-59.916q0-1.2209 0.8453-2.0661 0.8452-0.8452 2.16-0.8452 1.1269 0 1.9721 0.8452 0.9391 0.8452 0.9391 2.0661z"/>
 <path d="m666.97 1.0182q1.2209 0 1.8783 0.7513 0.7513 0.7513 0.7513 1.8782v60.104q0 1.4086-0.9391 2.2539-0.8452 0.7513-1.9722 0.7513-0.5635 0-1.2209-0.1879-0.6574-0.2817-1.033-0.7513l-41.885-56.442 1.5965-0.8452v55.69q0 1.0331-0.7513 1.7844t-1.8782 0.7513q-1.2209 0-1.9722-0.7513-0.6574-0.7513-0.6574-1.7844v-60.386q0-1.4087 0.8453-2.0661 0.8452-0.7513 1.8782-0.7513 0.5635 0 1.2209 0.2817 0.6574 0.1878 1.033 0.7513l41.416 55.784-0.9391 1.6904v-55.878q0-1.1269 0.7513-1.8782 0.8452-0.7513 1.8782-0.7513z"/>
 <path d="m714.57 66.718q-1.3148 0-2.16-0.8453-0.7513-0.8452-0.7513-1.9721v-59.822h5.8226v59.822q0 1.1269-0.8452 1.9721-0.8452 0.8453-2.0661 0.8453zm-22.351-60.386q-1.127 0-1.9722-0.7513t-0.8452-1.9722q0-1.1269 0.8452-1.8782t1.9722-0.7513h44.702q1.127 0 1.9722 0.7513t0.8452 1.9721q0 1.2209-0.8452 1.9722-0.8452 0.6574-1.9722 0.6574z"/>
 <path d="m814.07 33.818q0 7.4191-2.3478 13.617-2.2539 6.1043-6.48 10.706-4.2261 4.5078-10.049 7.0435-5.7287 2.4417-12.584 2.4417t-12.678-2.4417q-5.7287-2.5357-9.9547-7.0435-4.2261-4.6017-6.5739-10.706-2.2539-6.1983-2.2539-13.617t2.2539-13.523q2.3478-6.1983 6.5739-10.706 4.226-4.6017 9.9547-7.0434 5.8226-2.5357 12.678-2.5357t12.584 2.5357q5.8226 2.4417 10.049 7.0434 4.2261 4.5078 6.48 10.706 2.3478 6.1043 2.3478 13.523zm-6.0104 0q0-8.3582-3.287-14.65-3.193-6.386-8.9217-9.9547t-13.242-3.5687q-7.4191 0-13.242 3.5687-5.7286 3.5687-9.0156 9.9547-3.193 6.2922-3.193 14.65t3.193 14.744q3.287 6.2922 9.0156 9.8608 5.8226 3.5687 13.242 3.5687 7.513 0 13.242-3.5687 5.7287-3.5686 8.9217-9.8608 3.287-6.3861 3.287-14.744z"/>
 <path d="m34.372 201.12q0 1.127-0.8452 1.9722-0.7513 0.8452-1.9721 0.8452-1.2209 0-2.0661-0.8452-0.7513-0.8452-0.7513-1.9722v-85.085q0-1.2208 0.7513-1.9721 0.8452-0.8453 2.16-0.8453 1.2208 0 1.9721 0.8453 0.7513 0.7513 0.7513 1.9721z"/>
 <path d="m786.67 201.12q0 1.127-0.8452 1.9722-0.7513 0.8452-1.9721 0.8452-1.2209 0-2.0661-0.8452-0.7513-0.8452-0.7513-1.9722v-85.085q0-1.2208 0.7513-1.9721 0.8452-0.8453 2.16-0.8453 1.2208 0 1.9721 0.8453 0.7513 0.7513 0.7513 1.9721z"/>
 <path d="m23.572 308.02q-7.1374 0.094-12.396-2.2539-5.2591-2.3478-10.049-7.0435-0.4695-0.3756-0.8452-0.9391-0.2817-0.5635-0.2817-1.3148 0-1.1269 0.8452-2.0661 0.9391-0.9391 2.0661-0.9391 1.1269 0 2.0661 0.9391 3.6625 3.9444 8.2643 6.0105 4.6956 2.066 10.049 2.066 4.5078 0 7.9826-1.4087 3.5687-1.4086 5.6348-4.0382 2.066-2.6296 2.066-6.1043 0-4.32-2.3478-6.9496-2.3478-2.7234-6.1982-4.4139-3.8504-1.7843-8.5461-3.193-3.8504-1.1269-7.3252-2.5356-3.4747-1.5026-6.1982-3.5687-2.7235-2.16-4.2261-5.2591t-1.5026-7.513q0-4.9774 2.6296-8.8278 2.6295-3.8505 7.4191-6.0104 4.8835-2.254 11.27-2.254 5.5409 0 10.612 1.8783 5.1651 1.8783 8.1704 5.5409 1.4086 1.5026 1.4086 2.7234 0 0.9391-0.9391 1.8783-0.9391 0.9391-2.0661 0.9391-0.9391 0-1.5965-0.6574-1.5965-1.9722-4.0382-3.4748-2.4418-1.5965-5.447-2.4417-2.9113-0.8452-6.1043-0.8452-4.4139 0-7.9826 1.4087-3.4747 1.3148-5.5408 3.8504-1.9722 2.5356-1.9722 6.1043 0 3.9444 2.2539 6.48 2.2539 2.5357 5.9165 4.2261 3.6626 1.5965 7.7948 3.0052 4.0382 1.1269 7.7008 2.6295 3.7565 1.4087 6.5739 3.5687 2.9113 2.16 4.5078 5.447 1.6904 3.2869 1.6904 8.2643 0 4.7895-2.7234 8.6399-2.7235 3.8505-7.513 6.1044-4.6957 2.2539-11.082 2.3478z"/>
 <path d="m131.37 274.22q0 7.4191-2.3479 13.617-2.2539 6.1043-6.4799 10.706-4.2261 4.5078-10.049 7.0435-5.7287 2.4417-12.584 2.4417t-12.678-2.4417q-5.7287-2.5357-9.9547-7.0435-4.2261-4.6017-6.5739-10.706-2.2539-6.1983-2.2539-13.617t2.2539-13.523q2.3478-6.1982 6.5739-10.706 4.226-4.6017 9.9547-7.0434 5.8226-2.5357 12.678-2.5357t12.584 2.5357q5.8226 2.4417 10.049 7.0434 4.226 4.5079 6.4799 10.706 2.3479 6.1043 2.3479 13.523zm-6.0104 0q0-8.3582-3.287-14.65-3.193-6.386-8.9217-9.9547t-13.242-3.5687q-7.4191 0-13.242 3.5687-5.7287 3.5687-9.0156 9.9547-3.193 6.2922-3.193 14.65t3.193 14.744q3.2869 6.2922 9.0156 9.8608 5.8226 3.5687 13.242 3.5687 7.513 0 13.242-3.5687 5.7287-3.5686 8.9217-9.8608 3.287-6.3861 3.287-14.744z"/>
 <path d="m160.27 307.12q-1.3148 0-2.16-0.8453-0.7513-0.8452-0.7513-1.9721v-60.104q0-1.127 0.8452-1.9722 0.8453-0.8452 1.9722-0.8452h34.184q1.2209 0 1.9722 0.8452 0.8452 0.7513 0.8452 1.9722 0 1.1269-0.8452 1.9721-0.7513 0.7513-1.9722 0.7513h-31.648l0.3756-0.5635v24.981l-0.4696-0.8452h27.516q1.2208 0 1.9721 0.8452 0.8452 0.7513 0.8452 1.8783 0 1.2208-0.8452 1.9721-0.7513 0.7513-1.9721 0.7513h-27.704l0.6574-0.7513v29.113q0 1.1269-0.8452 1.9721-0.7513 0.8453-1.9722 0.8453z"/>
 <path d="m238.37 307.12q-1.3148 0-2.16-0.8453-0.7513-0.8452-0.7513-1.9721v-59.822h5.8226v59.822q0 1.1269-0.8452 1.9721-0.8453 0.8453-2.0661 0.8453zm-22.351-60.386q-1.127 0-1.9722-0.7513t-0.8452-1.9722q0-1.1269 0.8452-1.8782t1.9722-0.7513h44.702q1.127 0 1.9722 0.7513t0.8452 1.9721q0 1.2209-0.8452 1.9722-0.8452 0.6574-1.9722 0.6574z"/>
 <path d="m333.67 285.22q-1.3148 0-2.16-0.8452-0.7513-0.8452-0.7513-2.0661t0.7513-1.9722q0.8452-0.8452 2.16-0.8452h62.076q1.2209 0 2.0661 0.8452 0.8452 0.7513 0.8452 1.9722t-0.8452 2.0661-2.0661 0.8452z"/>
 <path d="m494.87 308.02q-7.1373 0.094-12.396-2.2539-5.2591-2.3478-10.049-7.0435-0.4695-0.3756-0.8452-0.9391-0.2817-0.5635-0.2817-1.3148 0-1.1269 0.8452-2.0661 0.9391-0.9391 2.0661-0.9391 1.1269 0 2.066 0.9391 3.6626 3.9444 8.2644 6.0105 4.6956 2.066 10.049 2.066 4.5078 0 7.9826-1.4087 3.5687-1.4086 5.6348-4.0382 2.066-2.6296 2.066-6.1043 0-4.32-2.3478-6.9496-2.3478-2.7234-6.1982-4.4139-3.8504-1.7843-8.5461-3.193-3.8504-1.1269-7.3252-2.5356-3.4747-1.5026-6.1982-3.5687-2.7235-2.16-4.2261-5.2591t-1.5026-7.513q0-4.9774 2.6296-8.8278 2.6295-3.8505 7.4191-6.0104 4.8834-2.254 11.27-2.254 5.5408 0 10.612 1.8783 5.1652 1.8783 8.1704 5.5409 1.4087 1.5026 1.4087 2.7234 0 0.9391-0.9391 1.8783-0.9391 0.9391-2.0661 0.9391-0.9391 0-1.5965-0.6574-1.5965-1.9722-4.0382-3.4748-2.4418-1.5965-5.447-2.4417-2.9113-0.8452-6.1043-0.8452-4.4139 0-7.9826 1.4087-3.4747 1.3148-5.5408 3.8504-1.9722 2.5356-1.9722 6.1043 0 3.9444 2.2539 6.48 2.2539 2.5357 5.9165 4.2261 3.6626 1.5965 7.7948 3.0052 4.0382 1.1269 7.7008 2.6295 3.7565 1.4087 6.5739 3.5687 2.9113 2.16 4.5078 5.447 1.6904 3.2869 1.6904 8.2643 0 4.7895-2.7234 8.6399-2.7235 3.8505-7.5131 6.1044-4.6956 2.2539-11.082 2.3478z"/>
 <path d="m590.97 307.52q-1.2209 0-2.0661-1.033l-26.671-33.527 4.4139-4.4139 26.859 33.996q0.6574 0.9392 0.6574 1.9722 0 1.5026-1.1269 2.2539-1.0331 0.7513-2.0661 0.7513zm-1.033-65.927q1.1269 0 1.8782 0.8452 0.8452 0.8452 0.8452 1.8783 0 1.1269-0.8452 1.9721l-42.636 39.913-0.7513-6.386 39.443-37.283q0.9391-0.9391 2.0661-0.9391zm-43.012 65.551q-1.3147 0-2.16-0.8453-0.7513-0.8452-0.7513-2.066v-59.916q0-1.2209 0.8453-2.0661 0.8452-0.8452 2.16-0.8452 1.2208 0 2.066 0.8452t0.8452 2.0661v59.916q-0.094 1.2208-0.9391 2.066-0.8452 0.8453-2.0661 0.8453z"/>
 <path d="m621.77 304.22q-0.094 1.2208-1.033 2.066-0.8452 0.8453-1.9722 0.8453-1.3148 0-2.16-0.8453-0.7513-0.8452-0.7513-2.066v-59.916q0-1.2209 0.8452-2.0661t2.16-0.8452q1.127 0 1.9722 0.8452 0.9391 0.8452 0.9391 2.0661z"/>
 <path d="m685.57 301.62q1.1269 0 1.9722 0.8452 0.8452 0.7513 0.8452 1.8783 0 1.2208-0.8452 2.0661-0.8453 0.7513-1.9722 0.7513h-33.527q-1.2209 0-2.0661-0.8453-0.7513-0.8452-0.7513-1.9721v-60.104q0-1.127 0.8452-1.9722t2.16-0.8452q1.1269 0 1.9722 0.8452 0.9391 0.8452 0.9391 1.9722v58.977l-1.7844-1.5965z"/>
 <path d="m743.17 301.62q1.127 0 1.9722 0.8452 0.8452 0.7513 0.8452 1.8783 0 1.2208-0.8452 2.0661-0.8452 0.7513-1.9722 0.7513h-33.527q-1.2209 0-2.0661-0.8453-0.7513-0.8452-0.7513-1.9721v-60.104q0-1.127 0.8452-1.9722 0.8453-0.8452 2.16-0.8452 1.127 0 1.9722 0.8452 0.9391 0.8452 0.9391 1.9722v58.977l-1.7843-1.5965z"/>
 <path d="m782.47 308.02q-7.1373 0.094-12.396-2.2539-5.2592-2.3478-10.049-7.0435-0.4696-0.3756-0.8452-0.9391-0.2818-0.5635-0.2818-1.3148 0-1.1269 0.8453-2.0661 0.9391-0.9391 2.066-0.9391 1.127 0 2.0661 0.9391 3.6626 3.9444 8.2643 6.0105 4.6957 2.066 10.049 2.066 4.5078 0 7.9826-1.4087 3.5687-1.4086 5.6347-4.0382 2.0661-2.6296 2.0661-6.1043 0-4.32-2.3478-6.9496-2.3478-2.7234-6.1982-4.4139-3.8505-1.7843-8.5461-3.193-3.8504-1.1269-7.3252-2.5356-3.4748-1.5026-6.1982-3.5687-2.7235-2.16-4.2261-5.2591t-1.5026-7.513q0-4.9774 2.6296-8.8278 2.6295-3.8505 7.4191-6.0104 4.8834-2.254 11.27-2.254 5.5408 0 10.612 1.8783 5.1652 1.8783 8.1704 5.5409 1.4087 1.5026 1.4087 2.7234 0 0.9391-0.9391 1.8783-0.9391 0.9391-2.0661 0.9391-0.9391 0-1.5965-0.6574-1.5965-1.9722-4.0383-3.4748-2.4417-1.5965-5.4469-2.4417-2.9113-0.8452-6.1043-0.8452-4.4139 0-7.9826 1.4087-3.4748 1.3148-5.5408 3.8504-1.9722 2.5356-1.9722 6.1043 0 3.9444 2.2539 6.48 2.2539 2.5357 5.9165 4.2261 3.6626 1.5965 7.7947 3.0052 4.0383 1.1269 7.7009 2.6295 3.7565 1.4087 6.5739 3.5687 2.9113 2.16 4.5078 5.447 1.6904 3.2869 1.6904 8.2643 0 4.7895-2.7235 8.6399-2.7234 3.8505-7.513 6.1044-4.6956 2.2539-11.082 2.3478z"/>
</svg>
